# NOTES:,,,,,
# Any line starting with # is a comment.,,,,,
# Start of a section is marked with a tag starting with $. A semicolon ; indicates end of a section.,,,,,
# ===============================,,,,,
#,Crit count,Alt,DM,,
$COUNTS,4,2,3,,
;,,,,,
,,,,,
#,Linguistic term,Fuzzy No. (a b c),,,
$TERMS_FOR_RATINGS,,,,,
,VP,1 1 3,,,
,P,1 3 5,,,
,F,3 5 7,,,
,G,5 7 9,,,
,VG,7 9 9,,,
;,,,,,
$TERMS_FOR_WEIGHTS,,,,,
,VL,1 1 3,,,
,L,1 3 5,,,
,M,3 5 7,,,
,H,5 7 9,,,
,VH,7 9 9,,,
;,,,,,
$CRIT_TYPES,,,,,
,c0,B,,,
,c1,B,,,
,c2,B,,,
,c3,B,,,
;,,,,,
#,,For DM-0,DM-1,DM-n,
$CRIT_WEIGHTAGE,,,,,
,c0,H,M,M,
,c1,VH,H,H,
,c2,VH,H,H,
,c3,M,L,L,
;,,,,,
#,,A0,A1,,
#,,,,,Values are space-separated list of ratings given by each DM
$ALT_RATINGS,,,,,
,c0,F F F,G G F,,
,c1,VG VG VG,G VG G,,
,c2,P F P,P P P,,
,c3,F F P,P P F,,
;,,,,,
